{
  "v": "5.5.7",
  "fr": 24,
  "ip": 0,
  "op": 35,
  "w": 1000,
  "h": 1000,
  "nm": "Sample",
  "ddd": 0,
  "assets": [
    {
      "id": "comp_0",
      "layers": [
        {
          "ddd": 0,
          "ind": 1,
          "ty": 4,
          "nm": "SocialMobBlack Outlines",
          "sr": 1,
          "ks": {
            "o": {
              "a": 0,
              "k": 100,
              "ix": 11
            },
            "r": {
              "a": 0,
              "k": 0,
              "ix": 10
            },
            "p": {
              "a": 0,
              "k": [
                250.731,
                249.112,
                0
              ],
              "ix": 2
            },
            "a": {
              "a": 0,
              "k": [
                80,
                84.5,
                0
              ],
              "ix": 1
            },
            "s": {
              "a": 0,
              "k": [
                157.2,
                157.2,
                100
              ],
              "ix": 6
            }
          },
          "ao": 0,
          "shapes": [
            {
              "ty": "gr",
              "it": [
                {
                  "ind": 0,
                  "ty": "sh",
                  "ix": 1,
                  "ks": {
                    "a": 0,
                    "k": {
                      "i": [
                        [
                          21.523,
                          0.005
                        ],
                        [
                          0,
                          0
                        ],
                        [
                          0,
                          -21.52
                        ],
                        [
                          0,
                          0
                        ],
                        [
                          -5.497,
                          -2.371
                        ],
                        [
                          0,
                          0
                        ],
                        [
                          0,
                          0
                        ],
                        [
                          0,
                          0
                        ],
                        [
                          -4.971,
                          0
                        ],
                        [
                          0,
                          -4.971
                        ],
                        [
                          0,
                          0
                        ],
                        [
                          -5.557,
                          -2.344
                        ],
                        [
                          0,
                          0
                        ],
                        [
                          0,
                          0
                        ],
                        [
                          -0.75,
                          0.306
                        ],
                        [
                          0,
                          0
                        ],
                        [
                          0,
                          0
                        ],
                        [
                          -0.001,
                          6.022
                        ],
                        [
                          0,
                          0
                        ],
                        [
                          -4.971,
                          0
                        ],
                        [
                          0,
                          -4.971
                        ],
                        [
                          0,
                          0
                        ],
                        [
                          0,
                          0
                        ],
                        [
                          0,
                          0
                        ],
                        [
                          -0.002,
                          5.988
                        ],
                        [
                          0,
                          0
                        ]
                      ],
                      "o": [
                        [
                          0,
                          0
                        ],
                        [
                          -21.52,
                          0.027
                        ],
                        [
                          0,
                          0
                        ],
                        [
                          0.001,
                          5.987
                        ],
                        [
                          0,
                          0
                        ],
                        [
                          0,
                          0
                        ],
                        [
                          0,
                          0
                        ],
                        [
                          0,
                          -4.971
                        ],
                        [
                          4.971,
                          0
                        ],
                        [
                          0,
                          0
                        ],
                        [
                          0,
                          6.031
                        ],
                        [
                          0,
                          0
                        ],
                        [
                          0,
                          0
                        ],
                        [
                          0.75,
                          0.306
                        ],
                        [
                          0,
                          0
                        ],
                        [
                          0,
                          0
                        ],
                        [
                          5.546,
                          -2.349
                        ],
                        [
                          0,
                          0
                        ],
                        [
                          0,
                          -4.971
                        ],
                        [
                          4.971,
                          0
                        ],
                        [
                          0,
                          0
                        ],
                        [
                          0,
                          0
                        ],
                        [
                          0,
                          0
                        ],
                        [
                          5.497,
                          -2.371
                        ],
                        [
                          0,
                          0
                        ],
                        [
                          -0.016,
                          -21.524
                        ]
                      ],
                      "v": [
                        [
                          23.955,
                          -53.868
                        ],
                        [
                          -23.995,
                          -53.868
                        ],
                        [
                          -62.945,
                          -14.868
                        ],
                        [
                          -62.945,
                          19.272
                        ],
                        [
                          -53.885,
                          33.042
                        ],
                        [
                          -52.885,
                          33.442
                        ],
                        [
                          -47.995,
                          35.342
                        ],
                        [
                          -47.995,
                          -5.918
                        ],
                        [
                          -38.995,
                          -14.918
                        ],
                        [
                          -29.995,
                          -5.918
                        ],
                        [
                          -29.995,
                          32.082
                        ],
                        [
                          -20.825,
                          45.902
                        ],
                        [
                          -20.155,
                          46.161
                        ],
                        [
                          -1.155,
                          53.562
                        ],
                        [
                          1.185,
                          53.562
                        ],
                        [
                          20.184,
                          46.161
                        ],
                        [
                          20.854,
                          45.902
                        ],
                        [
                          30.005,
                          32.092
                        ],
                        [
                          30.005,
                          -5.908
                        ],
                        [
                          39.005,
                          -14.908
                        ],
                        [
                          48.005,
                          -5.908
                        ],
                        [
                          48.005,
                          35.352
                        ],
                        [
                          52.885,
                          33.451
                        ],
                        [
                          53.885,
                          33.052
                        ],
                        [
                          62.945,
                          19.281
                        ],
                        [
                          62.945,
                          -14.898
                        ]
                      ],
                      "c": true
                    },
                    "ix": 2
                  },
                  "nm": "Path 1",
                  "mn": "ADBE Vector Shape - Group",
                  "hd": false
                },
                {
                  "ty": "fl",
                  "c": {
                    "a": 0,
                    "k": [
                      0.501960784314,
                      0.501960784314,
                      0.501960784314,
                      1
                    ],
                    "ix": 4
                  },
                  "o": {
                    "a": 0,
                    "k": 100,
                    "ix": 5
                  },
                  "r": 1,
                  "bm": 0,
                  "nm": "Fill 1",
                  "mn": "ADBE Vector Graphic - Fill",
                  "hd": false
                },
                {
                  "ty": "tr",
                  "p": {
                    "a": 0,
                    "k": [
                      79.535,
                      85.098
                    ],
                    "ix": 2
                  },
                  "a": {
                    "a": 0,
                    "k": [
                      0,
                      0
                    ],
                    "ix": 1
                  },
                  "s": {
                    "a": 0,
                    "k": [
                      100,
                      100
                    ],
                    "ix": 3
                  },
                  "r": {
                    "a": 0,
                    "k": 0,
                    "ix": 6
                  },
                  "o": {
                    "a": 0,
                    "k": 100,
                    "ix": 7
                  },
                  "sk": {
                    "a": 0,
                    "k": 0,
                    "ix": 4
                  },
                  "sa": {
                    "a": 0,
                    "k": 0,
                    "ix": 5
                  },
                  "nm": "Transform"
                }
              ],
              "nm": "Group 1",
              "np": 2,
              "cix": 2,
              "bm": 0,
              "ix": 1,
              "mn": "ADBE Vector Group",
              "hd": false
            },
            {
              "ty": "gr",
              "it": [
                {
                  "ind": 0,
                  "ty": "sh",
                  "ix": 1,
                  "ks": {
                    "a": 0,
                    "k": {
                      "i": [
                        [
                          0,
                          -21.52
                        ],
                        [
                          0,
                          0
                        ],
                        [
                          5.498,
                          -2.371
                        ],
                        [
                          0,
                          0
                        ],
                        [
                          0,
                          0
                        ],
                        [
                          0,
                          0
                        ],
                        [
                          4.97,
                          0
                        ],
                        [
                          0,
                          -4.971
                        ],
                        [
                          0,
                          0
                        ],
                        [
                          5.56,
                          -2.341
                        ],
                        [
                          0,
                          0
                        ],
                        [
                          0,
                          0
                        ],
                        [
                          0.75,
                          0.307
                        ],
                        [
                          0,
                          0
                        ],
                        [
                          0,
                          0
                        ],
                        [
                          0.001,
                          6.023
                        ],
                        [
                          0,
                          0
                        ],
                        [
                          4.971,
                          0
                        ],
                        [
                          0,
                          -4.97
                        ],
                        [
                          0,
                          0
                        ],
                        [
                          0,
                          0
                        ],
                        [
                          0,
                          0
                        ],
                        [
                          0.001,
                          5.987
                        ],
                        [
                          0,
                          0
                        ],
                        [
                          -21.539,
                          0
                        ],
                        [
                          0,
                          0
                        ]
                      ],
                      "o": [
                        [
                          0,
                          0
                        ],
                        [
                          -0.002,
                          5.987
                        ],
                        [
                          0,
                          0
                        ],
                        [
                          0,
                          0
                        ],
                        [
                          0,
                          0
                        ],
                        [
                          0,
                          -4.971
                        ],
                        [
                          -4.971,
                          0
                        ],
                        [
                          0,
                          0
                        ],
                        [
                          -0.002,
                          6.034
                        ],
                        [
                          0,
                          0
                        ],
                        [
                          0,
                          0
                        ],
                        [
                          -0.75,
                          0.307
                        ],
                        [
                          0,
                          0
                        ],
                        [
                          0,
                          0
                        ],
                        [
                          -5.546,
                          -2.349
                        ],
                        [
                          0,
                          0
                        ],
                        [
                          0,
                          -4.97
                        ],
                        [
                          -4.971,
                          0
                        ],
                        [
                          0,
                          0
                        ],
                        [
                          0,
                          0
                        ],
                        [
                          0,
                          0
                        ],
                        [
                          -5.497,
                          -2.371
                        ],
                        [
                          0,
                          0
                        ],
                        [
                          0,
                          -21.539
                        ],
                        [
                          0,
                          0
                        ],
                        [
                          21.519,
                          0.028
                        ]
                      ],
                      "v": [
                        [
                          62.95,
                          -14.883
                        ],
                        [
                          62.95,
                          19.286
                        ],
                        [
                          53.889,
                          33.057
                        ],
                        [
                          52.889,
                          33.456
                        ],
                        [
                          48.01,
                          35.357
                        ],
                        [
                          48.01,
                          -5.904
                        ],
                        [
                          39.01,
                          -14.904
                        ],
                        [
                          30.01,
                          -5.904
                        ],
                        [
                          30.01,
                          32.096
                        ],
                        [
                          20.83,
                          45.917
                        ],
                        [
                          20.16,
                          46.176
                        ],
                        [
                          1.16,
                          53.577
                        ],
                        [
                          -1.18,
                          53.577
                        ],
                        [
                          -20.18,
                          46.176
                        ],
                        [
                          -20.85,
                          45.917
                        ],
                        [
                          -30,
                          32.107
                        ],
                        [
                          -30,
                          -5.893
                        ],
                        [
                          -39,
                          -14.893
                        ],
                        [
                          -48,
                          -5.893
                        ],
                        [
                          -48,
                          35.367
                        ],
                        [
                          -52.89,
                          33.467
                        ],
                        [
                          -53.89,
                          33.066
                        ],
                        [
                          -62.95,
                          19.297
                        ],
                        [
                          -62.95,
                          -14.883
                        ],
                        [
                          -23.95,
                          -53.883
                        ],
                        [
                          24,
                          -53.883
                        ]
                      ],
                      "c": true
                    },
                    "ix": 2
                  },
                  "nm": "Path 1",
                  "mn": "ADBE Vector Shape - Group",
                  "hd": false
                },
                {
                  "ty": "fl",
                  "c": {
                    "a": 0,
                    "k": [
                      0.501960784314,
                      0.501960784314,
                      0.501960784314,
                      1
                    ],
                    "ix": 4
                  },
                  "o": {
                    "a": 0,
                    "k": 100,
                    "ix": 5
                  },
                  "r": 1,
                  "bm": 0,
                  "nm": "Fill 1",
                  "mn": "ADBE Vector Graphic - Fill",
                  "hd": false
                },
                {
                  "ty": "tr",
                  "p": {
                    "a": 0,
                    "k": [
                      79.5,
                      85.083
                    ],
                    "ix": 2
                  },
                  "a": {
                    "a": 0,
                    "k": [
                      0,
                      0
                    ],
                    "ix": 1
                  },
                  "s": {
                    "a": 0,
                    "k": [
                      100,
                      100
                    ],
                    "ix": 3
                  },
                  "r": {
                    "a": 0,
                    "k": 0,
                    "ix": 6
                  },
                  "o": {
                    "a": 0,
                    "k": 100,
                    "ix": 7
                  },
                  "sk": {
                    "a": 0,
                    "k": 0,
                    "ix": 4
                  },
                  "sa": {
                    "a": 0,
                    "k": 0,
                    "ix": 5
                  },
                  "nm": "Transform"
                }
              ],
              "nm": "Group 2",
              "np": 2,
              "cix": 2,
              "bm": 0,
              "ix": 2,
              "mn": "ADBE Vector Group",
              "hd": false
            },
            {
              "ty": "gr",
              "it": [
                {
                  "ind": 0,
                  "ty": "sh",
                  "ix": 1,
                  "ks": {
                    "a": 0,
                    "k": {
                      "i": [
                        [
                          0,
                          0
                        ],
                        [
                          8.496,
                          -3.63
                        ],
                        [
                          0,
                          0
                        ],
                        [
                          0,
                          0
                        ],
                        [
                          0,
                          0
                        ],
                        [
                          0,
                          0
                        ],
                        [
                          1.411,
                          0.01
                        ],
                        [
                          1.347,
                          0.546
                        ],
                        [
                          0,
                          0
                        ],
                        [
                          0,
                          0
                        ],
                        [
                          0,
                          0
                        ],
                        [
                          -0.006,
                          9.24
                        ],
                        [
                          0,
                          0
                        ],
                        [
                          -25.997,
                          0.017
                        ],
                        [
                          0,
                          0
                        ],
                        [
                          -0.028,
                          -25.99
                        ]
                      ],
                      "o": [
                        [
                          0.006,
                          9.239
                        ],
                        [
                          0,
                          0
                        ],
                        [
                          0,
                          0
                        ],
                        [
                          0,
                          0
                        ],
                        [
                          0,
                          0
                        ],
                        [
                          -1.31,
                          0.525
                        ],
                        [
                          -1.453,
                          0.005
                        ],
                        [
                          0,
                          0
                        ],
                        [
                          0,
                          0
                        ],
                        [
                          0,
                          0
                        ],
                        [
                          -8.497,
                          -3.63
                        ],
                        [
                          0,
                          0
                        ],
                        [
                          0.022,
                          -25.996
                        ],
                        [
                          0,
                          0
                        ],
                        [
                          25.99,
                          0.028
                        ],
                        [
                          0,
                          0
                        ]
                      ],
                      "v": [
                        [
                          71.038,
                          19.066
                        ],
                        [
                          57.038,
                          40.286
                        ],
                        [
                          55.758,
                          40.807
                        ],
                        [
                          32.908,
                          49.697
                        ],
                        [
                          23.088,
                          53.507
                        ],
                        [
                          4.088,
                          60.907
                        ],
                        [
                          -0.032,
                          61.687
                        ],
                        [
                          -4.273,
                          60.867
                        ],
                        [
                          -23.792,
                          53.247
                        ],
                        [
                          -32.912,
                          49.697
                        ],
                        [
                          -57.082,
                          40.267
                        ],
                        [
                          -71.082,
                          19.047
                        ],
                        [
                          -71.082,
                          -15.104
                        ],
                        [
                          -23.992,
                          -62.184
                        ],
                        [
                          23.958,
                          -62.184
                        ],
                        [
                          71.038,
                          -15.104
                        ]
                      ],
                      "c": true
                    },
                    "ix": 2
                  },
                  "nm": "Path 1",
                  "mn": "ADBE Vector Shape - Group",
                  "hd": false
                },
                {
                  "ind": 1,
                  "ty": "sh",
                  "ix": 2,
                  "ks": {
                    "a": 0,
                    "k": {
                      "i": [
                        [
                          30.48,
                          0.022
                        ],
                        [
                          0,
                          0
                        ],
                        [
                          0.027,
                          -30.467
                        ],
                        [
                          0,
                          0
                        ],
                        [
                          -11.461,
                          -4.924
                        ],
                        [
                          0,
                          0
                        ],
                        [
                          0,
                          0
                        ],
                        [
                          0,
                          0
                        ],
                        [
                          -4.626,
                          1.807
                        ],
                        [
                          0,
                          0
                        ],
                        [
                          0,
                          0
                        ],
                        [
                          0,
                          0
                        ],
                        [
                          0,
                          0
                        ],
                        [
                          0.008,
                          12.476
                        ],
                        [
                          0,
                          0
                        ]
                      ],
                      "o": [
                        [
                          0,
                          0
                        ],
                        [
                          -30.467,
                          0.039
                        ],
                        [
                          0,
                          0
                        ],
                        [
                          -0.014,
                          12.474
                        ],
                        [
                          0,
                          0
                        ],
                        [
                          0,
                          0
                        ],
                        [
                          0,
                          0
                        ],
                        [
                          4.6,
                          1.872
                        ],
                        [
                          0,
                          0
                        ],
                        [
                          0,
                          0
                        ],
                        [
                          0,
                          0
                        ],
                        [
                          0,
                          0
                        ],
                        [
                          11.463,
                          -4.924
                        ],
                        [
                          0,
                          0
                        ],
                        [
                          -0.034,
                          -30.48
                        ]
                      ],
                      "v": [
                        [
                          23.958,
                          -70.304
                        ],
                        [
                          -23.992,
                          -70.304
                        ],
                        [
                          -79.172,
                          -15.104
                        ],
                        [
                          -79.172,
                          19.066
                        ],
                        [
                          -60.302,
                          47.747
                        ],
                        [
                          -35.852,
                          57.277
                        ],
                        [
                          -26.733,
                          60.838
                        ],
                        [
                          -7.322,
                          68.396
                        ],
                        [
                          7.048,
                          68.497
                        ],
                        [
                          26.048,
                          61.097
                        ],
                        [
                          35.878,
                          57.277
                        ],
                        [
                          58.788,
                          48.347
                        ],
                        [
                          60.298,
                          47.747
                        ],
                        [
                          79.178,
                          19.066
                        ],
                        [
                          79.178,
                          -15.104
                        ]
                      ],
                      "c": true
                    },
                    "ix": 2
                  },
                  "nm": "Path 2",
                  "mn": "ADBE Vector Shape - Group",
                  "hd": false
                },
                {
                  "ty": "mm",
                  "mm": 1,
                  "nm": "Merge Paths 1",
                  "mn": "ADBE Vector Filter - Merge",
                  "hd": false
                },
                {
                  "ty": "fl",
                  "c": {
                    "a": 0,
                    "k": [
                      0.501960784314,
                      0.501960784314,
                      0.501960784314,
                      1
                    ],
                    "ix": 4
                  },
                  "o": {
                    "a": 0,
                    "k": 100,
                    "ix": 5
                  },
                  "r": 1,
                  "bm": 0,
                  "nm": "Fill 1",
                  "mn": "ADBE Vector Graphic - Fill",
                  "hd": false
                },
                {
                  "ty": "tr",
                  "p": {
                    "a": 0,
                    "k": [
                      79.532,
                      85.303
                    ],
                    "ix": 2
                  },
                  "a": {
                    "a": 0,
                    "k": [
                      0,
                      0
                    ],
                    "ix": 1
                  },
                  "s": {
                    "a": 0,
                    "k": [
                      100,
                      100
                    ],
                    "ix": 3
                  },
                  "r": {
                    "a": 0,
                    "k": 0,
                    "ix": 6
                  },
                  "o": {
                    "a": 0,
                    "k": 100,
                    "ix": 7
                  },
                  "sk": {
                    "a": 0,
                    "k": 0,
                    "ix": 4
                  },
                  "sa": {
                    "a": 0,
                    "k": 0,
                    "ix": 5
                  },
                  "nm": "Transform"
                }
              ],
              "nm": "Group 3",
              "np": 4,
              "cix": 2,
              "bm": 0,
              "ix": 3,
              "mn": "ADBE Vector Group",
              "hd": false
            }
          ],
          "ip": 0,
          "op": 97,
          "st": 0,
          "bm": 0
        }
      ]
    }
  ],
  "layers": [
    {
      "ddd": 0,
      "ind": 1,
      "ty": 0,
      "nm": "Radio Wave01",
      "refId": "comp_0",
      "sr": 1,
      "ks": {
        "o": {
          "a": 0,
          "k": 100,
          "ix": 11
        },
        "r": {
          "a": 0,
          "k": 0,
          "ix": 10
        },
        "p": {
          "a": 0,
          "k": [
            500,
            500,
            0
          ],
          "ix": 2
        },
        "a": {
          "a": 0,
          "k": [
            250,
            250,
            0
          ],
          "ix": 1
        },
        "s": {
          "a": 0,
          "k": [
            100,
            100,
            100
          ],
          "ix": 6
        }
      },
      "ao": 0,
      "w": 500,
      "h": 500,
      "ip": 0,
      "op": 35,
      "st": 0,
      "bm": 0
    }
  ],
  "markers": []
}